﻿


EVENT   1
 PAGE   1
  ShowMessageFace("",0,0,2,1)
  ShowMessage("次のフロアに進みますか？")
  ShowChoices(strings("まだ行かない","次のフロアに進む"),1)
  IfPlayerPicksChoice(0,null)
   205(-1,bytes(0x04,0x08,0x6f,0x3a,0x13,0x52,0x50,0x47,0x3a,0x3a,0x4d,0x6f,0x76,0x65,0x52,0x6f,0x75,0x74,0x65,0x09,0x3a,0x0c,0x40,0x72,0x65,0x70,0x65,0x61,0x74,0x46,0x3a,0x0f,0x40,0x73,0x6b,0x69,0x70,0x70,0x61,0x62,0x6c,0x65,0x46,0x3a,0x0a,0x40,0x77,0x61,0x69,0x74,0x54,0x3a,0x0a,0x40,0x6c,0x69,0x73,0x74,0x5b,0x07,0x6f,0x3a,0x15,0x52,0x50,0x47,0x3a,0x3a,0x4d,0x6f,0x76,0x65,0x43,0x6f,0x6d,0x6d,0x61,0x6e,0x64,0x07,0x3a,0x0a,0x40,0x63,0x6f,0x64,0x65,0x69,0x09,0x3a,0x10,0x40,0x70,0x61,0x72,0x61,0x6d,0x65,0x74,0x65,0x72,0x73,0x5b,0x00,0x6f,0x3b,0x0a,0x07,0x3b,0x0b,0x69,0x00,0x3b,0x0c,0x5b,0x00))
   EndEventProcessing()
   0()
  IfPlayerPicksChoice(1,null)
   ChangeVariable(121,121,2,0,1)
   RunCommonEvent(901)
   EndEventProcessing()
   0()
  404()
  0()



EVENT   2
 PAGE   1
  ShowMessageFace("sirousagi_fc1",0,0,2,1)
  ShowMessage("\\n<White Rabbit>大サービスで、回復してあげる！")
  250(bytes(0x04,0x08,0x6f,0x3a,0x0c,0x52,0x50,0x47,0x3a,0x3a,0x53,0x45,0x08,0x3a,0x0a,0x40,0x6e,0x61,0x6d,0x65,0x49,0x22,0x0a,0x48,0x65,0x61,0x6c,0x37,0x06,0x3a,0x06,0x45,0x54,0x3a,0x0b,0x40,0x70,0x69,0x74,0x63,0x68,0x69,0x69,0x3a,0x0c,0x40,0x76,0x6f,0x6c,0x75,0x6d,0x65,0x69,0x55))
  224(bytes(0x04,0x08,0x75,0x3a,0x0a,0x43,0x6f,0x6c,0x6f,0x72,0x25,0x00,0x00,0x00,0x00,0x00,0xe0,0x6f,0x40,0x00,0x00,0x00,0x00,0x00,0xe0,0x6f,0x40,0x00,0x00,0x00,0x00,0x00,0xe0,0x6f,0x40,0x00,0x00,0x00,0x00,0x00,0xe0,0x6f,0x40),30,true)
  314(0,0)
  ShowMessageFace("",0,0,2,2)
  ShowMessage("ルカ達のHPとMPが全快した！")
  ShowMessageFace("sirousagi_fc1",0,0,2,3)
  ShowMessage("\\n<White Rabbit>それじゃあ、がんばってね～！")
  EndEventProcessing()
  0()
 PAGE   2
  // condition: variable 126 >= 3
  ShowMessageFace("sirousagi_fc1",0,0,2,1)
  ShowMessage("\\n<White Rabbit>大サービスで、回復してあげ――")
  314(0,0)
  250(bytes(0x04,0x08,0x6f,0x3a,0x0c,0x52,0x50,0x47,0x3a,0x3a,0x53,0x45,0x08,0x3a,0x0a,0x40,0x6e,0x61,0x6d,0x65,0x49,0x22,0x0f,0x6d,0x6f,0x6e,0x5f,0x73,0x6c,0x61,0x73,0x68,0x33,0x06,0x3a,0x06,0x45,0x54,0x3a,0x0b,0x40,0x70,0x69,0x74,0x63,0x68,0x69,0x69,0x3a,0x0c,0x40,0x76,0x6f,0x6c,0x75,0x6d,0x65,0x69,0x69))
  PictureDisplay(10,"sys_cut",0,0,0,0,100,100,0,0)
  PictureMove(10,null,0,0,0,0,100,100,255,0,30,true)
  Wait(15)
  ChangeSwitch(31,31,0)
  ChangeSwitch(32,32,0)
  241(bytes(0x04,0x08,0x6f,0x3a,0x0d,0x52,0x50,0x47,0x3a,0x3a,0x42,0x47,0x4d,0x08,0x3a,0x0a,0x40,0x6e,0x61,0x6d,0x65,0x49,0x22,0x0c,0x62,0x6f,0x73,0x73,0x30,0x2d,0x33,0x06,0x3a,0x06,0x45,0x54,0x3a,0x0c,0x40,0x76,0x6f,0x6c,0x75,0x6d,0x65,0x69,0x69,0x3a,0x0b,0x40,0x70,0x69,0x74,0x63,0x68,0x69,0x69))
  PictureDisplay(5,"ct_marcellus1",0,0,0,0,100,100,255,0)
  PictureMove(10,null,0,0,0,0,100,100,0,0,60,true)
  ShowMessageFace("",0,0,2,2)
  ShowMessage("白兎は一刀両断にされた！")
  PictureClear(5)
  Wait(60)
  PictureDisplay(5,"80_marcellus_st01",0,0,0,0,100,100,0,0)
  PictureMove(5,null,0,0,0,0,100,100,255,0,30,true)
  ShowMessageFace("marcellus_fc1",0,0,2,3)
  ShowMessage("\\n<？？？>ラビットタイプ……アポトーシスの原種か。")
  ShowMessage("どれだけ斬っても、次から次へと湧いてくる……")
  ShowMessageFace("ruka_fc1",0,0,2,4)
  ShowMessage("\\n<Luka>そんな、まさか……！")
  If(0,1005,0)
   ShowMessageFace("alice_fc6",0,0,2,5)
   ShowMessage("\\n<Alice>貴様……本当に人間なのか？")
   ShowMessage("余が見たところ、貴様は――")
   ShowMessageFace("marcellus_fc1",0,0,2,6)
   ShowMessage("\\n<魔王殺し>お前は、魔王……タイプ16の亜種か？")
   ShowMessage("何にしろ、魔王は全て滅ぼすのみ。")
   0()
  Else()
   ShowMessageFace("marcellus_fc1",0,0,2,7)
   ShowMessage("\\n<魔王殺し>お前達も、魔王に縁がある者のようだな。")
   ShowMessage("ならば、ここで討つのみ……")
   ShowMessageFace("ruka_fc1",0,0,2,8)
   ShowMessage("\\n<Luka>待って、父さん！　僕は――")
   ShowMessageFace("iriasu_fc4",7,0,2,9)
   ShowMessage("\\n<Ilias>無駄です、ルカ！")
   ShowMessage("見たところ、相手は微塵の容赦もしませんよ！")
   0()
  EndIf()
  If(0,1045,0)
   ShowMessageFace("alicetromeria_fc1",3,0,2,10)
   ShowMessage("\\n<Alicetroemeria>あら、これは……")
   ShowMessage("実に興味深いですわ……")
   ShowMessageFace("marcellus_fc1",0,0,2,11)
   ShowMessage("\\n<魔王殺し>それに、タイプ8か……大物だな。")
   ShowMessage("これまで200体ほどしか狩っていないタイプだ。")
   0()
  EndIf()
  ShowMessageFace("marcellus_fc1",0,0,2,12)
  ShowMessage("\\n<魔王殺し>全ての世界、全ての魔王は私が滅ぼす……行くぞ！")
  PictureClear(5)
  SetBattleBGM(bytes(0x04,0x08,0x6f,0x3a,0x0d,0x52,0x50,0x47,0x3a,0x3a,0x42,0x47,0x4d,0x08,0x3a,0x0a,0x40,0x6e,0x61,0x6d,0x65,0x49,0x22,0x10,0x62,0x6f,0x73,0x73,0x5f,0x63,0x68,0x61,0x6f,0x73,0x31,0x06,0x3a,0x06,0x45,0x54,0x3a,0x0c,0x40,0x76,0x6f,0x6c,0x75,0x6d,0x65,0x69,0x69,0x3a,0x0b,0x40,0x70,0x69,0x74,0x63,0x68,0x69,0x69))
  ChangeSwitch(2333,2333,0)
  Battle(0,1289,false,false)
  ChangeSwitch(2333,2333,1)
  SetBattleBGM(bytes(0x04,0x08,0x6f,0x3a,0x0d,0x52,0x50,0x47,0x3a,0x3a,0x42,0x47,0x4d,0x08,0x3a,0x0a,0x40,0x6e,0x61,0x6d,0x65,0x49,0x22,0x0b,0x62,0x61,0x74,0x74,0x6c,0x65,0x06,0x3a,0x06,0x45,0x54,0x3a,0x0c,0x40,0x76,0x6f,0x6c,0x75,0x6d,0x65,0x69,0x69,0x3a,0x0b,0x40,0x70,0x69,0x74,0x63,0x68,0x69,0x69))
  ShowMessageFace("marcellus_fc1",0,0,2,13)
  ShowMessage("\\n<魔王殺し>私を退けるとは……強くなったな、ルカ。")
  ShowMessageFace("ruka_fc1",0,0,2,14)
  ShowMessage("\\n<Luka>父さん……")
  If(0,1005,0)
   ShowMessageFace("alice_fc6",0,0,2,15)
   ShowMessage("\\n<Alice>並行世界を渡り歩いて、どれだけの魔王を殺してきた？")
   ShowMessage("それに余が見たところ、貴様の年齢は――")
   0()
  Else()
   ShowMessageFace("iriasu_fc4",7,0,2,16)
   ShowMessage("\\n<Ilias>並行世界を渡り歩き、どれだけの魔王を倒してきたのです？")
   ShowMessage("私が見たところ、あなたの年齢は――")
   0()
  EndIf()
  ShowMessageFace("marcellus_fc1",0,0,2,17)
  ShowMessage("\\n<魔王殺し>村を出てから、五百年以上……")
  ShowMessage("幾多の並行世界で、あらゆる時代の魔王を狩り続けた。")
  ShowMessageFace("marcellus_fc1",0,0,2,18)
  ShowMessage("\\n<魔王殺し>朽ちていく肉体に、機械的改造や魔導的強化を重ね……")
  ShowMessage("この身はもはや、人のものではない。")
  ShowMessageFace("ruka_fc1",0,0,2,19)
  ShowMessage("\\n<Luka>なんで、そんな……")
  ShowMessageFace("marcellus_fc1",0,0,2,20)
  ShowMessage("\\n<魔王殺し>白兎は魔王を導き、そして世界を破滅させる。")
  ShowMessage("それを防ぐためには、魔王を倒し続けるしかないのだ……")
  ShowMessageFace("marcellus_fc1",0,0,2,21)
  ShowMessage("\\n<魔王殺し>では私は、別の世界に旅立とう。")
  ShowMessage("さらばだ、ルカ……")
  ShowMessageFace("ruka_fc1",0,0,2,22)
  ShowMessage("\\n<Luka>……………………")
  ChangeSwitch(32,32,1)
  249(bytes(0x04,0x08,0x6f,0x3a,0x0c,0x52,0x50,0x47,0x3a,0x3a,0x4d,0x45,0x08,0x3a,0x0a,0x40,0x6e,0x61,0x6d,0x65,0x49,0x22,0x0c,0x66,0x61,0x6e,0x66,0x61,0x6c,0x65,0x06,0x3a,0x06,0x45,0x54,0x3a,0x0b,0x40,0x70,0x69,0x74,0x63,0x68,0x69,0x69,0x3a,0x0c,0x40,0x76,0x6f,0x6c,0x75,0x6d,0x65,0x69,0x69))
  ShowMessageFace("",0,0,2,23)
  ShowMessage("魔王殺しを撃退した！")
  RunCommonEvent(836)
  ChangeInventory_Item(565,0,0,1)
  RunCommonEvent(889)
  Wait(60)
  ChangeVariable(121,121,2,0,1)
  RunCommonEvent(901)
  EndEventProcessing()
  0()
 PAGE   3
  // condition: switch 31 is ON
  // condition: variable 126 >= 3
  0()
 PAGE   4
  // condition: variable 126 >= 4
  ShowMessageFace("sirousagi_fc1",0,0,2,1)
  ShowMessage("\\n<White Rabbit>大サービスで、回復してあげる！")
  250(bytes(0x04,0x08,0x6f,0x3a,0x0c,0x52,0x50,0x47,0x3a,0x3a,0x53,0x45,0x08,0x3a,0x0a,0x40,0x6e,0x61,0x6d,0x65,0x49,0x22,0x0a,0x48,0x65,0x61,0x6c,0x37,0x06,0x3a,0x06,0x45,0x54,0x3a,0x0b,0x40,0x70,0x69,0x74,0x63,0x68,0x69,0x69,0x3a,0x0c,0x40,0x76,0x6f,0x6c,0x75,0x6d,0x65,0x69,0x55))
  224(bytes(0x04,0x08,0x75,0x3a,0x0a,0x43,0x6f,0x6c,0x6f,0x72,0x25,0x00,0x00,0x00,0x00,0x00,0xe0,0x6f,0x40,0x00,0x00,0x00,0x00,0x00,0xe0,0x6f,0x40,0x00,0x00,0x00,0x00,0x00,0xe0,0x6f,0x40,0x00,0x00,0x00,0x00,0x00,0xe0,0x6f,0x40),30,true)
  314(0,0)
  ShowMessageFace("",0,0,2,2)
  ShowMessage("ルカ達のHPとMPが全快した！")
  ShowMessageFace("sirousagi_fc1",0,0,2,3)
  ShowMessage("\\n<White Rabbit>それじゃあ、がんばってね～！")
  EndEventProcessing()
  0()



EVENT   3
 PAGE   1
  // condition: variable 126 >= 0
  ShowMessageFace("",0,0,2,1)
  ShowMessage("とても強い力を感じる……")
  ShowMessage("強大なボスに挑みますか？")
  ShowChoices(strings("Yes","No"),2)
  IfPlayerPicksChoice(0,null)
   217()
   205(-1,bytes(0x04,0x08,0x6f,0x3a,0x13,0x52,0x50,0x47,0x3a,0x3a,0x4d,0x6f,0x76,0x65,0x52,0x6f,0x75,0x74,0x65,0x09,0x3a,0x0c,0x40,0x72,0x65,0x70,0x65,0x61,0x74,0x46,0x3a,0x0f,0x40,0x73,0x6b,0x69,0x70,0x70,0x61,0x62,0x6c,0x65,0x46,0x3a,0x0a,0x40,0x77,0x61,0x69,0x74,0x54,0x3a,0x0a,0x40,0x6c,0x69,0x73,0x74,0x5b,0x07,0x6f,0x3a,0x15,0x52,0x50,0x47,0x3a,0x3a,0x4d,0x6f,0x76,0x65,0x43,0x6f,0x6d,0x6d,0x61,0x6e,0x64,0x07,0x3a,0x0a,0x40,0x63,0x6f,0x64,0x65,0x69,0x18,0x3a,0x10,0x40,0x70,0x61,0x72,0x61,0x6d,0x65,0x74,0x65,0x72,0x73,0x5b,0x00,0x6f,0x3b,0x0a,0x07,0x3b,0x0b,0x69,0x00,0x3b,0x0c,0x5b,0x00))
   250(bytes(0x04,0x08,0x6f,0x3a,0x0c,0x52,0x50,0x47,0x3a,0x3a,0x53,0x45,0x08,0x3a,0x0a,0x40,0x6e,0x61,0x6d,0x65,0x49,0x22,0x0d,0x6d,0x6f,0x6e,0x5f,0x77,0x61,0x72,0x70,0x06,0x3a,0x06,0x45,0x54,0x3a,0x0b,0x40,0x70,0x69,0x74,0x63,0x68,0x69,0x69,0x3a,0x0c,0x40,0x76,0x6f,0x6c,0x75,0x6d,0x65,0x69,0x55))
   212(11,542,false)
   Wait(30)
   ChangeSwitch(31,31,0)
   Wait(90)
   241(bytes(0x04,0x08,0x6f,0x3a,0x0d,0x52,0x50,0x47,0x3a,0x3a,0x42,0x47,0x4d,0x08,0x3a,0x0a,0x40,0x6e,0x61,0x6d,0x65,0x49,0x22,0x0e,0x6b,0x75,0x72,0x6f,0x61,0x6c,0x69,0x63,0x65,0x06,0x3a,0x06,0x45,0x54,0x3a,0x0c,0x40,0x76,0x6f,0x6c,0x75,0x6d,0x65,0x69,0x69,0x3a,0x0b,0x40,0x70,0x69,0x74,0x63,0x68,0x69,0x69))
   PictureDisplay(5,"80_alice8th_st01",0,0,0,0,100,100,0,0)
   PictureMove(5,null,0,0,0,0,100,100,255,0,60,true)
   ShowMessageFace("alice8th_fc1",0,0,2,2)
   ShowMessage("\\n<黒のアリス>ここは、また面白そうな場所……")
   ShowMessage("楽しい催しにはもってこいですわね。")
   ShowMessageFace("alice8th_fc1",0,0,2,3)
   ShowMessage("\\n<黒のアリス>それでは、私の遊びに付き合って頂きましょう。")
   ShowMessage("たっぷりと楽しませて下さいね……")
   PictureClear(5)
   SetBattleBGM(bytes(0x04,0x08,0x6f,0x3a,0x0d,0x52,0x50,0x47,0x3a,0x3a,0x42,0x47,0x4d,0x08,0x3a,0x0a,0x40,0x6e,0x61,0x6d,0x65,0x49,0x22,0x0f,0x62,0x6f,0x73,0x73,0x5f,0x6d,0x61,0x6f,0x75,0x31,0x06,0x3a,0x06,0x45,0x54,0x3a,0x0c,0x40,0x76,0x6f,0x6c,0x75,0x6d,0x65,0x69,0x69,0x3a,0x0b,0x40,0x70,0x69,0x74,0x63,0x68,0x69,0x69))
   ChangeSwitch(2333,2333,0)
   Battle(0,1292,false,false)
   SetBattleBGM(bytes(0x04,0x08,0x6f,0x3a,0x0d,0x52,0x50,0x47,0x3a,0x3a,0x42,0x47,0x4d,0x08,0x3a,0x0a,0x40,0x6e,0x61,0x6d,0x65,0x49,0x22,0x0b,0x62,0x61,0x74,0x74,0x6c,0x65,0x06,0x3a,0x06,0x45,0x54,0x3a,0x0c,0x40,0x76,0x6f,0x6c,0x75,0x6d,0x65,0x69,0x69,0x3a,0x0b,0x40,0x70,0x69,0x74,0x63,0x68,0x69,0x69))
   241(bytes(0x04,0x08,0x6f,0x3a,0x0d,0x52,0x50,0x47,0x3a,0x3a,0x42,0x47,0x4d,0x08,0x3a,0x0a,0x40,0x6e,0x61,0x6d,0x65,0x49,0x22,0x0e,0x6b,0x75,0x72,0x6f,0x61,0x6c,0x69,0x63,0x65,0x06,0x3a,0x06,0x45,0x54,0x3a,0x0c,0x40,0x76,0x6f,0x6c,0x75,0x6d,0x65,0x69,0x69,0x3a,0x0b,0x40,0x70,0x69,0x74,0x63,0x68,0x69,0x69))
   PictureDisplay(5,"80_alice8th_st01",0,0,0,0,100,100,0,0)
   PictureMove(5,null,0,0,0,0,100,100,255,0,30,true)
   ShowMessageFace("ruka_fc1",0,0,2,4)
   ShowMessage("\\n<Luka>やった……！")
   ShowMessageFace("alice8th_fc1",0,0,2,5)
   ShowMessage("\\n<黒のアリス>それでは、次は少し本気でいきましょうか……")
   ShowMessage("うふふっ、楽しませて下さいね……")
   ChangeSwitch(32,32,0)
   PictureDisplay(5,"80_alice8th2_st02",0,0,0,0,100,100,255,0)
   ShowMessageFace("",0,0,2,6)
   ShowMessage("黒のアリスは、スカートをまくり上げた！")
   ShowMessage("そこから、異形の器官が這い出してくる！")
   ShowMessageFace("alice8th_fc1",0,0,2,7)
   ShowMessage("\\n<黒のアリス>では遊びましょう、勇者ルカ……")
   ShowMessage("あっさり果てて、私をがっかりさせないで下さいね……")
   PictureClear(5)
   SetBattleBGM(bytes(0x04,0x08,0x6f,0x3a,0x0d,0x52,0x50,0x47,0x3a,0x3a,0x42,0x47,0x4d,0x08,0x3a,0x0a,0x40,0x6e,0x61,0x6d,0x65,0x49,0x22,0x0f,0x62,0x6f,0x73,0x73,0x5f,0x6d,0x61,0x6f,0x75,0x31,0x06,0x3a,0x06,0x45,0x54,0x3a,0x0c,0x40,0x76,0x6f,0x6c,0x75,0x6d,0x65,0x69,0x69,0x3a,0x0b,0x40,0x70,0x69,0x74,0x63,0x68,0x69,0x69))
   Battle(0,1293,false,false)
   SetBattleBGM(bytes(0x04,0x08,0x6f,0x3a,0x0d,0x52,0x50,0x47,0x3a,0x3a,0x42,0x47,0x4d,0x08,0x3a,0x0a,0x40,0x6e,0x61,0x6d,0x65,0x49,0x22,0x0b,0x62,0x61,0x74,0x74,0x6c,0x65,0x06,0x3a,0x06,0x45,0x54,0x3a,0x0c,0x40,0x76,0x6f,0x6c,0x75,0x6d,0x65,0x69,0x69,0x3a,0x0b,0x40,0x70,0x69,0x74,0x63,0x68,0x69,0x69))
   241(bytes(0x04,0x08,0x6f,0x3a,0x0d,0x52,0x50,0x47,0x3a,0x3a,0x42,0x47,0x4d,0x08,0x3a,0x0a,0x40,0x6e,0x61,0x6d,0x65,0x49,0x22,0x0e,0x6b,0x75,0x72,0x6f,0x61,0x6c,0x69,0x63,0x65,0x06,0x3a,0x06,0x45,0x54,0x3a,0x0c,0x40,0x76,0x6f,0x6c,0x75,0x6d,0x65,0x69,0x69,0x3a,0x0b,0x40,0x70,0x69,0x74,0x63,0x68,0x69,0x69))
   PictureDisplay(5,"80_alice8th2_st02",0,0,0,0,100,100,0,0)
   PictureMove(5,null,0,0,0,0,100,100,255,0,30,true)
   ShowMessageFace("alice8th_fc1",3,0,2,8)
   ShowMessage("\\n<黒のアリス>分かりました、真の姿をお見せしましょう。")
   ShowMessage("夢にも思いませんでした、この姿で戦う事になるなんて……")
   ChangeSwitch(33,33,0)
   PictureDisplay(5,"80_alice8th3_st01",0,0,0,0,100,100,255,0)
   ShowMessageFace("",0,0,2,9)
   ShowMessage("黒のアリスは真の力を解放した！")
   ShowMessageFace("alice8th_fc2",0,0,2,10)
   ShowMessage("\\n<黒のアリス>この姿の私を倒せば、あなたの勝利です……")
   ShowMessage("さあ、最後の決戦を楽しみましょう……")
   PictureClear(5)
   SetBattleBGM(bytes(0x04,0x08,0x6f,0x3a,0x0d,0x52,0x50,0x47,0x3a,0x3a,0x42,0x47,0x4d,0x08,0x3a,0x0a,0x40,0x6e,0x61,0x6d,0x65,0x49,0x22,0x0f,0x62,0x6f,0x73,0x73,0x5f,0x6d,0x61,0x6f,0x75,0x32,0x06,0x3a,0x06,0x45,0x54,0x3a,0x0c,0x40,0x76,0x6f,0x6c,0x75,0x6d,0x65,0x69,0x69,0x3a,0x0b,0x40,0x70,0x69,0x74,0x63,0x68,0x69,0x69))
   Battle(0,1294,false,false)
   ChangeSwitch(2333,2333,1)
   SetBattleBGM(bytes(0x04,0x08,0x6f,0x3a,0x0d,0x52,0x50,0x47,0x3a,0x3a,0x42,0x47,0x4d,0x08,0x3a,0x0a,0x40,0x6e,0x61,0x6d,0x65,0x49,0x22,0x0b,0x62,0x61,0x74,0x74,0x6c,0x65,0x06,0x3a,0x06,0x45,0x54,0x3a,0x0c,0x40,0x76,0x6f,0x6c,0x75,0x6d,0x65,0x69,0x69,0x3a,0x0b,0x40,0x70,0x69,0x74,0x63,0x68,0x69,0x69))
   241(bytes(0x04,0x08,0x6f,0x3a,0x0d,0x52,0x50,0x47,0x3a,0x3a,0x42,0x47,0x4d,0x08,0x3a,0x0a,0x40,0x6e,0x61,0x6d,0x65,0x49,0x22,0x0e,0x6b,0x75,0x72,0x6f,0x61,0x6c,0x69,0x63,0x65,0x06,0x3a,0x06,0x45,0x54,0x3a,0x0c,0x40,0x76,0x6f,0x6c,0x75,0x6d,0x65,0x69,0x69,0x3a,0x0b,0x40,0x70,0x69,0x74,0x63,0x68,0x69,0x69))
   ShowMessageFace("alice8th_fc2",0,0,2,11)
   ShowMessage("\\n<黒のアリス>なんと素晴らしい力……")
   ShowMessage("この私の本気さえ、踏み越えていけるとは……")
   ChangeSwitch(31,31,1)
   ChangeSwitch(32,32,1)
   ChangeSwitch(33,33,1)
   249(bytes(0x04,0x08,0x6f,0x3a,0x0c,0x52,0x50,0x47,0x3a,0x3a,0x4d,0x45,0x08,0x3a,0x0a,0x40,0x6e,0x61,0x6d,0x65,0x49,0x22,0x0c,0x66,0x61,0x6e,0x66,0x61,0x6c,0x65,0x06,0x3a,0x06,0x45,0x54,0x3a,0x0b,0x40,0x70,0x69,0x74,0x63,0x68,0x69,0x69,0x3a,0x0c,0x40,0x76,0x6f,0x6c,0x75,0x6d,0x65,0x69,0x69))
   ShowMessageFace("",0,0,2,12)
   ShowMessage("黒のアリスを撃退した！")
   RunCommonEvent(833)
   ChangeInventory_Item(565,0,0,1)
   RunCommonEvent(889)
   Wait(60)
   ChangeVariable(121,121,2,0,1)
   RunCommonEvent(901)
   EndEventProcessing()
   0()
  IfPlayerPicksChoice(1,null)
   205(-1,bytes(0x04,0x08,0x6f,0x3a,0x13,0x52,0x50,0x47,0x3a,0x3a,0x4d,0x6f,0x76,0x65,0x52,0x6f,0x75,0x74,0x65,0x09,0x3a,0x0c,0x40,0x72,0x65,0x70,0x65,0x61,0x74,0x46,0x3a,0x0f,0x40,0x73,0x6b,0x69,0x70,0x70,0x61,0x62,0x6c,0x65,0x46,0x3a,0x0a,0x40,0x77,0x61,0x69,0x74,0x54,0x3a,0x0a,0x40,0x6c,0x69,0x73,0x74,0x5b,0x07,0x6f,0x3a,0x15,0x52,0x50,0x47,0x3a,0x3a,0x4d,0x6f,0x76,0x65,0x43,0x6f,0x6d,0x6d,0x61,0x6e,0x64,0x07,0x3a,0x0a,0x40,0x63,0x6f,0x64,0x65,0x69,0x06,0x3a,0x10,0x40,0x70,0x61,0x72,0x61,0x6d,0x65,0x74,0x65,0x72,0x73,0x5b,0x00,0x6f,0x3b,0x0a,0x07,0x3b,0x0b,0x69,0x00,0x3b,0x0c,0x5b,0x00))
   EndEventProcessing()
   0()
  404()
  0()
 PAGE   2
  // condition: variable 126 >= 1
  ShowMessageFace("",0,0,2,1)
  ShowMessage("とても強い力を感じる……")
  ShowMessage("強大なボスに挑みますか？")
  ShowChoices(strings("Yes","No"),2)
  IfPlayerPicksChoice(0,null)
   217()
   205(-1,bytes(0x04,0x08,0x6f,0x3a,0x13,0x52,0x50,0x47,0x3a,0x3a,0x4d,0x6f,0x76,0x65,0x52,0x6f,0x75,0x74,0x65,0x09,0x3a,0x0c,0x40,0x72,0x65,0x70,0x65,0x61,0x74,0x46,0x3a,0x0f,0x40,0x73,0x6b,0x69,0x70,0x70,0x61,0x62,0x6c,0x65,0x46,0x3a,0x0a,0x40,0x77,0x61,0x69,0x74,0x54,0x3a,0x0a,0x40,0x6c,0x69,0x73,0x74,0x5b,0x07,0x6f,0x3a,0x15,0x52,0x50,0x47,0x3a,0x3a,0x4d,0x6f,0x76,0x65,0x43,0x6f,0x6d,0x6d,0x61,0x6e,0x64,0x07,0x3a,0x0a,0x40,0x63,0x6f,0x64,0x65,0x69,0x18,0x3a,0x10,0x40,0x70,0x61,0x72,0x61,0x6d,0x65,0x74,0x65,0x72,0x73,0x5b,0x00,0x6f,0x3b,0x0a,0x07,0x3b,0x0b,0x69,0x00,0x3b,0x0c,0x5b,0x00))
   212(5,501,false)
   Wait(30)
   ChangeSwitch(31,31,0)
   Wait(150)
   241(bytes(0x04,0x08,0x6f,0x3a,0x0d,0x52,0x50,0x47,0x3a,0x3a,0x42,0x47,0x4d,0x08,0x3a,0x0a,0x40,0x6e,0x61,0x6d,0x65,0x49,0x22,0x0c,0x62,0x6f,0x73,0x73,0x30,0x2d,0x33,0x06,0x3a,0x06,0x45,0x54,0x3a,0x0c,0x40,0x76,0x6f,0x6c,0x75,0x6d,0x65,0x69,0x69,0x3a,0x0b,0x40,0x70,0x69,0x74,0x63,0x68,0x69,0x69))
   PictureDisplay(5,"80_doppele_st01",0,0,0,0,100,100,0,0)
   PictureMove(5,null,0,0,0,0,100,100,255,0,60,true)
   ShowMessageFace("doppele_fc1",0,0,2,2)
   ShowMessage("\\n<Luka・ホリィ>ふふっ、キミがあたしのオリジナルだね。")
   ShowMessage("どっちが強いか、勝負しない？")
   PictureClear(5)
   Wait(30)
   212(6,501,false)
   Wait(60)
   ChangeSwitch(32,32,0)
   Wait(120)
   PictureDisplay(5,"80_doppele_st11",0,0,0,0,100,100,0,0)
   PictureMove(5,null,0,0,0,0,100,100,255,0,30,true)
   ShowMessageFace("doppele_fc1",4,0,2,3)
   ShowMessage("\\n<Luka・リノア>勇者として、どちらが上なのか……")
   ShowMessage("ここで、はっきりさせましょう。")
   PictureClear(5)
   Wait(30)
   212(7,501,false)
   Wait(60)
   ChangeSwitch(33,33,0)
   Wait(120)
   PictureDisplay(5,"80_doppele_st21",0,0,0,0,100,100,0,0)
   PictureMove(5,null,0,0,0,0,100,100,255,0,30,true)
   ShowMessageFace("doppele_fc1",1,0,2,4)
   ShowMessage("\\n<Luka・ハイネ>どうせ、ボク達の勝ちだけどね。")
   ShowMessage("ドッペルはみんな、オリジナル・ルカより強いんだから！")
   PictureClear(5)
   Wait(30)
   212(8,501,false)
   Wait(60)
   ChangeSwitch(34,34,0)
   Wait(120)
   PictureDisplay(5,"80_doppele_st31",0,0,0,0,100,100,0,0)
   PictureMove(5,null,0,0,0,0,100,100,255,0,30,true)
   ShowMessageFace("doppele_fc1",2,0,2,5)
   ShowMessage("\\n<Luka・キリエ>オリジナルだろうが、関係ないわ。")
   ShowMessage("昇天しなさい……")
   PictureClear(5)
   If(0,4,0)
    ShowMessageFace("alice_fc6",0,0,2,6)
    ShowMessage("\\n<Alice>こいつら、ルカのクローンか！？")
    ShowMessage("気を付けろ、かなりの強敵だぞ！")
    0()
   EndIf()
   If(0,5,0)
    ShowMessageFace("iriasu_fc4",5,0,2,7)
    ShowMessage("\\n<Ilias>なんと、ドッペルタイプが四体……！")
    ShowMessage("いったい、どの並行世界から現れたのです！？")
    0()
   EndIf()
   ShowMessageFace("doppele_fc1",0,0,2,8)
   ShowMessage("\\n<Luka・ホリィ>さあ、行くよっ！！")
   SetBattleBGM(bytes(0x04,0x08,0x6f,0x3a,0x0d,0x52,0x50,0x47,0x3a,0x3a,0x42,0x47,0x4d,0x08,0x3a,0x0a,0x40,0x6e,0x61,0x6d,0x65,0x49,0x22,0x10,0x62,0x6f,0x73,0x73,0x5f,0x63,0x68,0x61,0x6f,0x73,0x31,0x06,0x3a,0x06,0x45,0x54,0x3a,0x0c,0x40,0x76,0x6f,0x6c,0x75,0x6d,0x65,0x69,0x69,0x3a,0x0b,0x40,0x70,0x69,0x74,0x63,0x68,0x69,0x69))
   ChangeSwitch(2333,2333,0)
   Battle(0,1281,false,false)
   ChangeSwitch(2333,2333,1)
   SetBattleBGM(bytes(0x04,0x08,0x6f,0x3a,0x0d,0x52,0x50,0x47,0x3a,0x3a,0x42,0x47,0x4d,0x08,0x3a,0x0a,0x40,0x6e,0x61,0x6d,0x65,0x49,0x22,0x0b,0x62,0x61,0x74,0x74,0x6c,0x65,0x06,0x3a,0x06,0x45,0x54,0x3a,0x0c,0x40,0x76,0x6f,0x6c,0x75,0x6d,0x65,0x69,0x69,0x3a,0x0b,0x40,0x70,0x69,0x74,0x63,0x68,0x69,0x69))
   ShowMessageFace("doppele_fc1",4,0,2,9)
   ShowMessage("\\n<Luka・リノア>流石は私達のオリジナル、ここまで強いとは……")
   ShowMessage("今日のところは、退きましょう。")
   ChangeSwitch(31,31,1)
   ChangeSwitch(32,32,1)
   ChangeSwitch(33,33,1)
   ChangeSwitch(34,34,1)
   249(bytes(0x04,0x08,0x6f,0x3a,0x0c,0x52,0x50,0x47,0x3a,0x3a,0x4d,0x45,0x08,0x3a,0x0a,0x40,0x6e,0x61,0x6d,0x65,0x49,0x22,0x0c,0x66,0x61,0x6e,0x66,0x61,0x6c,0x65,0x06,0x3a,0x06,0x45,0x54,0x3a,0x0b,0x40,0x70,0x69,0x74,0x63,0x68,0x69,0x69,0x3a,0x0c,0x40,0x76,0x6f,0x6c,0x75,0x6d,0x65,0x69,0x69))
   ShowMessageFace("",0,0,2,10)
   ShowMessage("ドッペル達を撃退した！")
   RunCommonEvent(831)
   ChangeInventory_Item(565,0,0,1)
   RunCommonEvent(889)
   If(0,4,0)
    ShowMessageFace("alice_fc5",0,0,2,11)
    ShowMessage("\\n<Alice>ルカのクローンが、四体か……")
    ShowMessage("いったい、どの並行世界からやって来たのだろうな。")
    0()
   EndIf()
   If(0,5,0)
    ShowMessageFace("iriasu_fc4",2,0,2,12)
    ShowMessage("\\n<Ilias>ルカのドッペルを四体も……")
    ShowMessage("いったい、どの並行世界の産物なのでしょうか。")
    0()
   EndIf()
   Wait(60)
   ChangeVariable(121,121,2,0,1)
   RunCommonEvent(901)
   EndEventProcessing()
   0()
  IfPlayerPicksChoice(1,null)
   205(-1,bytes(0x04,0x08,0x6f,0x3a,0x13,0x52,0x50,0x47,0x3a,0x3a,0x4d,0x6f,0x76,0x65,0x52,0x6f,0x75,0x74,0x65,0x09,0x3a,0x0c,0x40,0x72,0x65,0x70,0x65,0x61,0x74,0x46,0x3a,0x0f,0x40,0x73,0x6b,0x69,0x70,0x70,0x61,0x62,0x6c,0x65,0x46,0x3a,0x0a,0x40,0x77,0x61,0x69,0x74,0x54,0x3a,0x0a,0x40,0x6c,0x69,0x73,0x74,0x5b,0x07,0x6f,0x3a,0x15,0x52,0x50,0x47,0x3a,0x3a,0x4d,0x6f,0x76,0x65,0x43,0x6f,0x6d,0x6d,0x61,0x6e,0x64,0x07,0x3a,0x0a,0x40,0x63,0x6f,0x64,0x65,0x69,0x06,0x3a,0x10,0x40,0x70,0x61,0x72,0x61,0x6d,0x65,0x74,0x65,0x72,0x73,0x5b,0x00,0x6f,0x3b,0x0a,0x07,0x3b,0x0b,0x69,0x00,0x3b,0x0c,0x5b,0x00))
   EndEventProcessing()
   0()
  404()
  0()
 PAGE   3
  // condition: variable 126 >= 2
  ShowMessageFace("",0,0,2,1)
  ShowMessage("とても強い力を感じる……")
  ShowMessage("強大なボスに挑みますか？")
  ShowChoices(strings("Yes","No"),2)
  IfPlayerPicksChoice(0,null)
   217()
   205(-1,bytes(0x04,0x08,0x6f,0x3a,0x13,0x52,0x50,0x47,0x3a,0x3a,0x4d,0x6f,0x76,0x65,0x52,0x6f,0x75,0x74,0x65,0x09,0x3a,0x0c,0x40,0x72,0x65,0x70,0x65,0x61,0x74,0x46,0x3a,0x0f,0x40,0x73,0x6b,0x69,0x70,0x70,0x61,0x62,0x6c,0x65,0x46,0x3a,0x0a,0x40,0x77,0x61,0x69,0x74,0x54,0x3a,0x0a,0x40,0x6c,0x69,0x73,0x74,0x5b,0x07,0x6f,0x3a,0x15,0x52,0x50,0x47,0x3a,0x3a,0x4d,0x6f,0x76,0x65,0x43,0x6f,0x6d,0x6d,0x61,0x6e,0x64,0x07,0x3a,0x0a,0x40,0x63,0x6f,0x64,0x65,0x69,0x18,0x3a,0x10,0x40,0x70,0x61,0x72,0x61,0x6d,0x65,0x74,0x65,0x72,0x73,0x5b,0x00,0x6f,0x3b,0x0a,0x07,0x3b,0x0b,0x69,0x00,0x3b,0x0c,0x5b,0x00))
   212(8,501,false)
   Wait(30)
   ChangeSwitch(31,31,0)
   Wait(150)
   241(bytes(0x04,0x08,0x6f,0x3a,0x0d,0x52,0x50,0x47,0x3a,0x3a,0x42,0x47,0x4d,0x08,0x3a,0x0a,0x40,0x6e,0x61,0x6d,0x65,0x49,0x22,0x0c,0x62,0x6f,0x73,0x73,0x30,0x2d,0x33,0x06,0x3a,0x06,0x45,0x54,0x3a,0x0c,0x40,0x76,0x6f,0x6c,0x75,0x6d,0x65,0x69,0x69,0x3a,0x0b,0x40,0x70,0x69,0x74,0x63,0x68,0x69,0x69))
   PictureDisplay(5,"80_heinrich_st22",0,0,0,0,100,100,0,0)
   PictureMove(5,null,0,0,0,0,100,100,255,0,60,true)
   ShowMessageFace("heinrich_fc3",2,0,2,2)
   ShowMessage("\\n<天使殺し>ここは、どこだ……？")
   ShowMessage("そして、僕は一体……")
   If(0,1538,0)
    ShowMessageFace("heinrich_fc1",2,0,2,3)
    ShowMessage("\\n<Heinrich>まさか、君は……並行世界の僕自身！？")
    0()
   EndIf()
   ShowMessageFace("heinrich_fc3",2,0,2,4)
   ShowMessage("\\n<天使殺し>もう、何も分からない……")
   ShowMessage("ただ一つ、覚えている事は――")
   ShowMessageFace("heinrich_fc3",2,0,2,5)
   ShowMessage("\\n<天使殺し>……天使を一人残らず絶滅させる事だけだ。")
   If(0,1045,0)
    ShowMessageFace("alicetromeria_fc1",2,0,2,6)
    ShowMessage("\\n<Alicetroemeria>天使を殺すだけの存在となった貴方など、正視に耐えません。")
    ShowMessage("ここで幕を引きましょう、この私の手で……")
    0()
   EndIf()
   PictureClear(5)
   SetBattleBGM(bytes(0x04,0x08,0x6f,0x3a,0x0d,0x52,0x50,0x47,0x3a,0x3a,0x42,0x47,0x4d,0x08,0x3a,0x0a,0x40,0x6e,0x61,0x6d,0x65,0x49,0x22,0x10,0x62,0x6f,0x73,0x73,0x5f,0x63,0x68,0x61,0x6f,0x73,0x31,0x06,0x3a,0x06,0x45,0x54,0x3a,0x0c,0x40,0x76,0x6f,0x6c,0x75,0x6d,0x65,0x69,0x69,0x3a,0x0b,0x40,0x70,0x69,0x74,0x63,0x68,0x69,0x69))
   ChangeSwitch(2333,2333,0)
   Battle(0,1288,false,false)
   ChangeSwitch(2333,2333,1)
   SetBattleBGM(bytes(0x04,0x08,0x6f,0x3a,0x0d,0x52,0x50,0x47,0x3a,0x3a,0x42,0x47,0x4d,0x08,0x3a,0x0a,0x40,0x6e,0x61,0x6d,0x65,0x49,0x22,0x0b,0x62,0x61,0x74,0x74,0x6c,0x65,0x06,0x3a,0x06,0x45,0x54,0x3a,0x0c,0x40,0x76,0x6f,0x6c,0x75,0x6d,0x65,0x69,0x69,0x3a,0x0b,0x40,0x70,0x69,0x74,0x63,0x68,0x69,0x69))
   ShowMessageFace("heinrich_fc3",1,0,2,7)
   ShowMessage("\\n<天使殺し>これで終わりだね……")
   ShowMessage("楽しい冒険だったよ、アリストロメリア……")
   If(0,1045,0)
    ShowMessageFace("alicetromeria_fc1",2,0,2,8)
    ShowMessage("\\n<Alicetroemeria>……カーテンコール。")
    ShowMessage("静かに眠りなさい。")
    0()
   EndIf()
   ChangeSwitch(31,31,1)
   249(bytes(0x04,0x08,0x6f,0x3a,0x0c,0x52,0x50,0x47,0x3a,0x3a,0x4d,0x45,0x08,0x3a,0x0a,0x40,0x6e,0x61,0x6d,0x65,0x49,0x22,0x0c,0x66,0x61,0x6e,0x66,0x61,0x6c,0x65,0x06,0x3a,0x06,0x45,0x54,0x3a,0x0b,0x40,0x70,0x69,0x74,0x63,0x68,0x69,0x69,0x3a,0x0c,0x40,0x76,0x6f,0x6c,0x75,0x6d,0x65,0x69,0x69))
   ShowMessageFace("",0,0,2,9)
   ShowMessage("天使殺しを撃退した！")
   RunCommonEvent(831)
   ChangeInventory_Item(565,0,0,1)
   RunCommonEvent(889)
   Wait(60)
   ChangeVariable(121,121,2,0,1)
   RunCommonEvent(901)
   EndEventProcessing()
   0()
  IfPlayerPicksChoice(1,null)
   205(-1,bytes(0x04,0x08,0x6f,0x3a,0x13,0x52,0x50,0x47,0x3a,0x3a,0x4d,0x6f,0x76,0x65,0x52,0x6f,0x75,0x74,0x65,0x09,0x3a,0x0c,0x40,0x72,0x65,0x70,0x65,0x61,0x74,0x46,0x3a,0x0f,0x40,0x73,0x6b,0x69,0x70,0x70,0x61,0x62,0x6c,0x65,0x46,0x3a,0x0a,0x40,0x77,0x61,0x69,0x74,0x54,0x3a,0x0a,0x40,0x6c,0x69,0x73,0x74,0x5b,0x07,0x6f,0x3a,0x15,0x52,0x50,0x47,0x3a,0x3a,0x4d,0x6f,0x76,0x65,0x43,0x6f,0x6d,0x6d,0x61,0x6e,0x64,0x07,0x3a,0x0a,0x40,0x63,0x6f,0x64,0x65,0x69,0x06,0x3a,0x10,0x40,0x70,0x61,0x72,0x61,0x6d,0x65,0x74,0x65,0x72,0x73,0x5b,0x00,0x6f,0x3b,0x0a,0x07,0x3b,0x0b,0x69,0x00,0x3b,0x0c,0x5b,0x00))
   EndEventProcessing()
   0()
  404()
  0()
 PAGE   4
  // condition: variable 126 >= 3
  ShowMessageFace("",0,0,2,1)
  ShowMessage("とても強い力を感じるが……")
  ShowMessage("しかし、何も起きなかった。")
  ShowMessageFace("sirousagi_fc1",0,0,2,2)
  ShowMessage("\\n<White Rabbit>まだ姿を見せていないみたいだね。")
  ShowMessage("今のうちに、回復してあげようか？")
  EndEventProcessing()
  0()
 PAGE   5
  // condition: variable 126 >= 4
  ShowMessageFace("",0,0,2,1)
  ShowMessage("とても強い力を感じる……")
  ShowMessage("強大なボスに挑みますか？")
  ShowChoices(strings("Yes","No"),2)
  IfPlayerPicksChoice(0,null)
   217()
   205(-1,bytes(0x04,0x08,0x6f,0x3a,0x13,0x52,0x50,0x47,0x3a,0x3a,0x4d,0x6f,0x76,0x65,0x52,0x6f,0x75,0x74,0x65,0x09,0x3a,0x0c,0x40,0x72,0x65,0x70,0x65,0x61,0x74,0x46,0x3a,0x0f,0x40,0x73,0x6b,0x69,0x70,0x70,0x61,0x62,0x6c,0x65,0x46,0x3a,0x0a,0x40,0x77,0x61,0x69,0x74,0x54,0x3a,0x0a,0x40,0x6c,0x69,0x73,0x74,0x5b,0x07,0x6f,0x3a,0x15,0x52,0x50,0x47,0x3a,0x3a,0x4d,0x6f,0x76,0x65,0x43,0x6f,0x6d,0x6d,0x61,0x6e,0x64,0x07,0x3a,0x0a,0x40,0x63,0x6f,0x64,0x65,0x69,0x18,0x3a,0x10,0x40,0x70,0x61,0x72,0x61,0x6d,0x65,0x74,0x65,0x72,0x73,0x5b,0x00,0x6f,0x3b,0x0a,0x07,0x3b,0x0b,0x69,0x00,0x3b,0x0c,0x5b,0x00))
   ScrollMap(8,5,4)
   Wait(60)
   212(9,501,false)
   Wait(30)
   ChangeSwitch(31,31,0)
   Wait(180)
   241(bytes(0x04,0x08,0x6f,0x3a,0x0d,0x52,0x50,0x47,0x3a,0x3a,0x42,0x47,0x4d,0x08,0x3a,0x0a,0x40,0x6e,0x61,0x6d,0x65,0x49,0x22,0x0c,0x62,0x6f,0x73,0x73,0x30,0x2d,0x33,0x06,0x3a,0x06,0x45,0x54,0x3a,0x0c,0x40,0x76,0x6f,0x6c,0x75,0x6d,0x65,0x69,0x69,0x3a,0x0b,0x40,0x70,0x69,0x74,0x63,0x68,0x69,0x69))
   PictureDisplay(5,"80_judgement_st01",0,0,0,0,100,100,0,0)
   PictureMove(5,null,0,0,0,0,100,100,255,0,60,true)
   ShowMessageFace("judgement_fc1",0,0,2,2)
   ShowMessage("\\n<ジャッジメント>さあ、審判の時間だよ。")
   ShowMessage("この世界、僕が裁こう……")
   PictureClear(5)
   SetBattleBGM(bytes(0x04,0x08,0x6f,0x3a,0x0d,0x52,0x50,0x47,0x3a,0x3a,0x42,0x47,0x4d,0x08,0x3a,0x0a,0x40,0x6e,0x61,0x6d,0x65,0x49,0x22,0x10,0x62,0x6f,0x73,0x73,0x5f,0x69,0x72,0x69,0x61,0x73,0x31,0x06,0x3a,0x06,0x45,0x54,0x3a,0x0c,0x40,0x76,0x6f,0x6c,0x75,0x6d,0x65,0x69,0x69,0x3a,0x0b,0x40,0x70,0x69,0x74,0x63,0x68,0x69,0x69))
   ChangeSwitch(2333,2333,0)
   Battle(0,1290,false,false)
   ChangeSwitch(2333,2333,1)
   SetBattleBGM(bytes(0x04,0x08,0x6f,0x3a,0x0d,0x52,0x50,0x47,0x3a,0x3a,0x42,0x47,0x4d,0x08,0x3a,0x0a,0x40,0x6e,0x61,0x6d,0x65,0x49,0x22,0x0b,0x62,0x61,0x74,0x74,0x6c,0x65,0x06,0x3a,0x06,0x45,0x54,0x3a,0x0c,0x40,0x76,0x6f,0x6c,0x75,0x6d,0x65,0x69,0x69,0x3a,0x0b,0x40,0x70,0x69,0x74,0x63,0x68,0x69,0x69))
   ShowMessageFace("judgement_fc1",2,0,2,3)
   ShowMessage("\\n<ジャッジメント>裁かれたのは……僕の方か……")
   ChangeSwitch(31,31,1)
   249(bytes(0x04,0x08,0x6f,0x3a,0x0c,0x52,0x50,0x47,0x3a,0x3a,0x4d,0x45,0x08,0x3a,0x0a,0x40,0x6e,0x61,0x6d,0x65,0x49,0x22,0x0c,0x66,0x61,0x6e,0x66,0x61,0x6c,0x65,0x06,0x3a,0x06,0x45,0x54,0x3a,0x0b,0x40,0x70,0x69,0x74,0x63,0x68,0x69,0x69,0x3a,0x0c,0x40,0x76,0x6f,0x6c,0x75,0x6d,0x65,0x69,0x69))
   ShowMessageFace("",0,0,2,4)
   ShowMessage("ジャッジメントを撃退した！")
   RunCommonEvent(833)
   ChangeInventory_Item(565,0,0,1)
   RunCommonEvent(889)
   Wait(60)
   ChangeVariable(121,121,2,0,1)
   RunCommonEvent(901)
   EndEventProcessing()
   0()
  IfPlayerPicksChoice(1,null)
   205(-1,bytes(0x04,0x08,0x6f,0x3a,0x13,0x52,0x50,0x47,0x3a,0x3a,0x4d,0x6f,0x76,0x65,0x52,0x6f,0x75,0x74,0x65,0x09,0x3a,0x0c,0x40,0x72,0x65,0x70,0x65,0x61,0x74,0x46,0x3a,0x0f,0x40,0x73,0x6b,0x69,0x70,0x70,0x61,0x62,0x6c,0x65,0x46,0x3a,0x0a,0x40,0x77,0x61,0x69,0x74,0x54,0x3a,0x0a,0x40,0x6c,0x69,0x73,0x74,0x5b,0x07,0x6f,0x3a,0x15,0x52,0x50,0x47,0x3a,0x3a,0x4d,0x6f,0x76,0x65,0x43,0x6f,0x6d,0x6d,0x61,0x6e,0x64,0x07,0x3a,0x0a,0x40,0x63,0x6f,0x64,0x65,0x69,0x06,0x3a,0x10,0x40,0x70,0x61,0x72,0x61,0x6d,0x65,0x74,0x65,0x72,0x73,0x5b,0x00,0x6f,0x3b,0x0a,0x07,0x3b,0x0b,0x69,0x00,0x3b,0x0c,0x5b,0x00))
   EndEventProcessing()
   0()
  404()
  0()
 PAGE   6
  // condition: variable 126 >= 5
  ShowMessageFace("",0,0,2,1)
  ShowMessage("とても強い力を感じる……")
  ShowMessage("強大なボスに挑みますか？")
  ShowChoices(strings("Yes","No"),2)
  IfPlayerPicksChoice(0,null)
   217()
   205(-1,bytes(0x04,0x08,0x6f,0x3a,0x13,0x52,0x50,0x47,0x3a,0x3a,0x4d,0x6f,0x76,0x65,0x52,0x6f,0x75,0x74,0x65,0x09,0x3a,0x0c,0x40,0x72,0x65,0x70,0x65,0x61,0x74,0x46,0x3a,0x0f,0x40,0x73,0x6b,0x69,0x70,0x70,0x61,0x62,0x6c,0x65,0x46,0x3a,0x0a,0x40,0x77,0x61,0x69,0x74,0x54,0x3a,0x0a,0x40,0x6c,0x69,0x73,0x74,0x5b,0x07,0x6f,0x3a,0x15,0x52,0x50,0x47,0x3a,0x3a,0x4d,0x6f,0x76,0x65,0x43,0x6f,0x6d,0x6d,0x61,0x6e,0x64,0x07,0x3a,0x0a,0x40,0x63,0x6f,0x64,0x65,0x69,0x18,0x3a,0x10,0x40,0x70,0x61,0x72,0x61,0x6d,0x65,0x74,0x65,0x72,0x73,0x5b,0x00,0x6f,0x3b,0x0a,0x07,0x3b,0x0b,0x69,0x00,0x3b,0x0c,0x5b,0x00))
   ScrollMap(8,5,4)
   Wait(60)
   212(9,547,false)
   Wait(60)
   ChangeSwitch(31,31,0)
   Wait(180)
   241(bytes(0x04,0x08,0x6f,0x3a,0x0d,0x52,0x50,0x47,0x3a,0x3a,0x42,0x47,0x4d,0x08,0x3a,0x0a,0x40,0x6e,0x61,0x6d,0x65,0x49,0x22,0x0c,0x62,0x6f,0x73,0x73,0x30,0x2d,0x33,0x06,0x3a,0x06,0x45,0x54,0x3a,0x0c,0x40,0x76,0x6f,0x6c,0x75,0x6d,0x65,0x69,0x69,0x3a,0x0b,0x40,0x70,0x69,0x74,0x63,0x68,0x69,0x69))
   PictureDisplay(5,"80_worldbreaker_st01",0,0,0,0,100,100,0,0)
   PictureMove(5,null,0,0,0,0,100,100,255,0,60,true)
   ShowMessageFace("worldbreaker_fc1",0,0,2,2)
   ShowMessage("\\n<ワールドブレイカー>次は、この世界……")
   ShowMessage("さあ、壊そうか……！")
   PictureClear(5)
   SetBattleBGM(bytes(0x04,0x08,0x6f,0x3a,0x0d,0x52,0x50,0x47,0x3a,0x3a,0x42,0x47,0x4d,0x08,0x3a,0x0a,0x40,0x6e,0x61,0x6d,0x65,0x49,0x22,0x10,0x62,0x6f,0x73,0x73,0x5f,0x63,0x68,0x61,0x6f,0x73,0x32,0x06,0x3a,0x06,0x45,0x54,0x3a,0x0c,0x40,0x76,0x6f,0x6c,0x75,0x6d,0x65,0x69,0x69,0x3a,0x0b,0x40,0x70,0x69,0x74,0x63,0x68,0x69,0x69))
   ChangeSwitch(2333,2333,0)
   Battle(0,1291,false,false)
   ChangeSwitch(2333,2333,1)
   SetBattleBGM(bytes(0x04,0x08,0x6f,0x3a,0x0d,0x52,0x50,0x47,0x3a,0x3a,0x42,0x47,0x4d,0x08,0x3a,0x0a,0x40,0x6e,0x61,0x6d,0x65,0x49,0x22,0x0b,0x62,0x61,0x74,0x74,0x6c,0x65,0x06,0x3a,0x06,0x45,0x54,0x3a,0x0c,0x40,0x76,0x6f,0x6c,0x75,0x6d,0x65,0x69,0x69,0x3a,0x0b,0x40,0x70,0x69,0x74,0x63,0x68,0x69,0x69))
   ShowMessageFace("worldbreaker_fc1",0,0,2,3)
   ShowMessage("\\n<ワールドブレイカー>いくつもの世界を、壊して……壊して……壊して……")
   ShowMessage("壊して……壊して……壊して……壊して……壊して……")
   ShowMessageFace("worldbreaker_fc1",0,0,2,4)
   ShowMessage("\\n<ワールドブレイカー>そして今日、ようやく終わりが来る……")
   ShowMessage("今度は、君が世界を壊せ……")
   ChangeSwitch(31,31,1)
   249(bytes(0x04,0x08,0x6f,0x3a,0x0c,0x52,0x50,0x47,0x3a,0x3a,0x4d,0x45,0x08,0x3a,0x0a,0x40,0x6e,0x61,0x6d,0x65,0x49,0x22,0x0c,0x66,0x61,0x6e,0x66,0x61,0x6c,0x65,0x06,0x3a,0x06,0x45,0x54,0x3a,0x0b,0x40,0x70,0x69,0x74,0x63,0x68,0x69,0x69,0x3a,0x0c,0x40,0x76,0x6f,0x6c,0x75,0x6d,0x65,0x69,0x69))
   ShowMessageFace("",0,0,2,5)
   ShowMessage("ワールドブレイカーを撃退した！")
   RunCommonEvent(832)
   ChangeInventory_Item(565,0,0,1)
   RunCommonEvent(889)
   Wait(60)
   ChangeVariable(121,121,2,0,1)
   RunCommonEvent(901)
   EndEventProcessing()
   0()
  IfPlayerPicksChoice(1,null)
   205(-1,bytes(0x04,0x08,0x6f,0x3a,0x13,0x52,0x50,0x47,0x3a,0x3a,0x4d,0x6f,0x76,0x65,0x52,0x6f,0x75,0x74,0x65,0x09,0x3a,0x0c,0x40,0x72,0x65,0x70,0x65,0x61,0x74,0x46,0x3a,0x0f,0x40,0x73,0x6b,0x69,0x70,0x70,0x61,0x62,0x6c,0x65,0x46,0x3a,0x0a,0x40,0x77,0x61,0x69,0x74,0x54,0x3a,0x0a,0x40,0x6c,0x69,0x73,0x74,0x5b,0x07,0x6f,0x3a,0x15,0x52,0x50,0x47,0x3a,0x3a,0x4d,0x6f,0x76,0x65,0x43,0x6f,0x6d,0x6d,0x61,0x6e,0x64,0x07,0x3a,0x0a,0x40,0x63,0x6f,0x64,0x65,0x69,0x06,0x3a,0x10,0x40,0x70,0x61,0x72,0x61,0x6d,0x65,0x74,0x65,0x72,0x73,0x5b,0x00,0x6f,0x3b,0x0a,0x07,0x3b,0x0b,0x69,0x00,0x3b,0x0c,0x5b,0x00))
   EndEventProcessing()
   0()
  404()
  0()



EVENT   4
 PAGE   1
  If(0,4,0)
   ShowMessageFace("alice_fc6",0,0,2,1)
   ShowMessage("\\n<Alice>この圧迫感……凄まじい敵がいるようだな。")
   ShowMessage("腕に自信がなければ、戦闘を避けるのも手だぞ。")
   0()
  EndIf()
  If(0,5,0)
   ShowMessageFace("iriasu_fc4",2,0,2,2)
   ShowMessage("\\n<Ilias>なんという圧迫感……かなりの敵がいるようですね。")
   ShowMessage("腕に自信がなければ、戦いを避けた方が良いでしょう。")
   0()
  EndIf()
  TemporaryRemoveEvent()
  0()



EVENT   5
 PAGE   1
  // condition: switch 31 is ON
  // condition: variable 126 >= 1
  0()
 PAGE   2
  // condition: variable 126 >= 2
  0()



EVENT   6
 PAGE   1
  // condition: switch 32 is ON
  // condition: variable 126 >= 1
  0()
 PAGE   2
  // condition: variable 126 >= 2
  0()



EVENT   7
 PAGE   1
  // condition: switch 33 is ON
  // condition: variable 126 >= 1
  0()
 PAGE   2
  // condition: variable 126 >= 2
  0()



EVENT   8
 PAGE   1
  // condition: switch 34 is ON
  // condition: variable 126 >= 1
  0()
 PAGE   2
  // condition: switch 31 is ON
  // condition: variable 126 >= 2
  0()
 PAGE   3
  // condition: variable 126 >= 3
  0()



EVENT   9
 PAGE   1
  // condition: switch 31 is ON
  // condition: variable 126 >= 4
  0()
 PAGE   2
  // condition: switch 31 is ON
  // condition: variable 126 >= 5
  0()
 PAGE   3
  // condition: variable 126 >= 6
  0()



EVENT   10
 PAGE   1
  // condition: switch 32 is ON
  // condition: variable 126 >= 3
  0()
 PAGE   2
  // condition: variable 126 >= 4
  0()



EVENT   11
 PAGE   1
  // condition: switch 31 is ON
  // condition: variable 126 >= 0
  0()
 PAGE   2
  // condition: switch 32 is ON
  // condition: variable 126 >= 0
  0()
 PAGE   3
  // condition: switch 33 is ON
  // condition: variable 126 >= 0
  0()
 PAGE   4
  // condition: variable 126 >= 1
  0()



EVENT   12
 PAGE   1
  221()
  ChangeSwitch(41,41,1)
  ChangeSwitch(52,52,1)
  ChangeSaveEnabled(1)
  ChangeSwitch(61,61,1)
  ChangeSwitch(62,62,1)
  ChangeSwitch(63,63,1)
  ChangeSwitch(64,64,1)
  ChangeSwitch(65,65,1)
  ChangeSwitch(69,69,1)
  ChangeSwitch(70,70,1)
  ChangeSwitch(71,71,1)
  ChangeSwitch(72,72,1)
  ChangeSwitch(54,54,1)
  ChangeSwitch(66,66,1)
  ChangeSwitch(67,67,1)
  ChangeSwitch(68,68,1)
  ChangeVariable(131,131,0,0,0)
  ChangeVariable(121,121,0,0,0)
  RunCommonEvent(112)
  If(1,121,1,122,1)
   ChangeVariable(122,122,0,1,121)
   0()
  EndIf()
  TeleportPlayer(0,576,14,50,2,2)
  ShowMessageFace("",0,0,2,1)
  ShowMessage("混沌の迷宮リニューアルにつき、過去の迷宮から弾き出された！")
  Wait(60)
  222()
  TemporaryRemoveEvent()
  0()
 PAGE   2
  // condition: switch 1926 is ON
  0()
