// EVENT 0348
Name "吸血鬼パブイベント"

ShowMessageFace("vgirl_fc1",0,0,2,1)
ShowMessage("\\n<ヴァニラ>吸血鬼パブに、上級の酒をお願いしたいのだが……")
ShowMessageFace("lazarus3_fc1",1,0,2,2)
ShowMessage("\\n<ラザロ>ああ、話は聞いてるぜ。")
ShowMessage("お嬢ちゃんが、女王の代理で交渉を進めてくれるのか？")
ShowMessageFace("vgirl_fc1",0,0,2,3)
ShowMessage("\\n<ヴァニラ>もちろんなのだ。")
ShowMessage("それではまず、仕込みの量について――")
ShowMessageFace("",0,0,2,4)
ShowMessage("円滑に交渉が進んでいく……")
ShowMessageFace("lazarus3_fc1",1,0,2,5)
ShowMessage("\\n<ラザロ>……よっしゃ、それでOKだ。")
ShowMessage("話は下に通しておくぜ。")
ShowMessageFace("vgirl_fc1",0,0,2,6)
ShowMessage("\\n<ヴァニラ>さすがは闇組織のドン、なかなか渋いのだ……")
ShowMessage("でも、良い取引になったのだ！")
ShowMessageFace("",0,0,2,7)
ShowMessage("酒の調達は整った。")
ShowMessage("こうして、僕達はサバサへと戻るのだった――")
221()
Wait(60)
TeleportPlayer(0,477,165,45,8,0)
222()
ShowMessageFace("queenvampire_fc1",0,0,2,8)
ShowMessage("\\n<クィーンヴァンパイア>この通り、吸血鬼パブは立派な店となった！")
ShowMessage("これも全て、お主達のおかげだぞ！")
ShowMessageFace("queenvampire_fc1",0,0,2,9)
ShowMessage("\\n<クィーンヴァンパイア>さっそく明日から、営業開始だ！")
ShowMessage("お主達も、今夜はゆっくり休むがいい。")
If(0,4,0)
 ShowMessageFace("alice_fc5",0,0,2,10)
 ShowMessage("\\n<アリス>それでは、今晩は宿に泊まるとするか。")
 ShowMessage("また明日、様子を見に来るとしよう。")
 0()
EndIf()
If(0,5,0)
 ShowMessageFace("iriasu_fc4",0,0,2,11)
 ShowMessage("\\n<イリアス>では今晩は、宿に泊まるとしましょう。")
 ShowMessage("また明日、様子を見に来ましょうか……")
 0()
EndIf()
221()
249(bytes(0x04,0x08,0x6f,0x3a,0x0c,0x52,0x50,0x47,0x3a,0x3a,0x4d,0x45,0x08,0x3a,0x0a,0x40,0x6e,0x61,0x6d,0x65,0x49,0x22,0x08,0x49,0x6e,0x6e,0x06,0x3a,0x06,0x45,0x54,0x3a,0x0b,0x40,0x70,0x69,0x74,0x63,0x68,0x69,0x69,0x3a,0x0c,0x40,0x76,0x6f,0x6c,0x75,0x6d,0x65,0x69,0x69))
Wait(150)
314(0,0)
TeleportPlayer(0,477,91,45,6,2)
222()
ShowMessageFace("ruka_fc1",0,0,2,12)
ShowMessage("\\n<ルカ>今日から、吸血鬼パブが営業開始だね……")
ShowMessage("さっそく行ってみよう！")
ChangeVariable(1086,1086,0,0,4)
0()
