// EVENT 4577
Name "Saki 2"

If(0,25,1)
 221()
 PictureClear(5)
 PictureClear(6)
 ShowMessageFace("",0,0,2,0)
 ShowMessage("......")
 242(2)
 Wait(120)
 241(bytes(0x04,0x08,0x6f,0x3a,0x0d,0x52,0x50,0x47,0x3a,0x3a,0x42,0x47,0x4d,0x08,0x3a,0x0a,0x40,0x6e,0x61,0x6d,0x65,0x49,0x22,0x0c,0x63,0x61,0x73,0x74,0x6c,0x65,0x36,0x06,0x3a,0x06,0x45,0x54,0x3a,0x0c,0x40,0x76,0x6f,0x6c,0x75,0x6d,0x65,0x69,0x69,0x3a,0x0b,0x40,0x70,0x69,0x74,0x63,0x68,0x69,0x69))
 EndEventProcessing()
 0()
EndIf()
PictureDisplay(5,"80_saki_st01",0,0,0,0,100,100,255,0)
ShowMessageFace("saki_fc1",0,0,2,1)
ShowMessage("\\n<Saki>Saki bought a new outfit...\nCan you give some feedback?")
ShowMessageFace("",0,0,2,2)
ShowMessage("\\n<Luka>Ok, sure.")
ShowMessageFace("saki_fc1",0,0,2,3)
ShowMessage("\\n<Saki>Alright then, come to Saki's room☆")
ShowMessageFace("",0,0,2,4)
ShowMessage("I follow Saki to her room...")
221()
PictureDisplay(1,"bg195",0,0,0,0,100,100,255,0)
PictureDisplay(5,"ev_saki_hc01",0,0,0,0,100,100,255,0)
222()
241(bytes(0x04,0x08,0x6f,0x3a,0x0d,0x52,0x50,0x47,0x3a,0x3a,0x42,0x47,0x4d,0x08,0x3a,0x0a,0x40,0x6e,0x61,0x6d,0x65,0x49,0x22,0x09,0x65,0x72,0x6f,0x31,0x06,0x3a,0x06,0x45,0x54,0x3a,0x0c,0x40,0x76,0x6f,0x6c,0x75,0x6d,0x65,0x69,0x69,0x3a,0x0b,0x40,0x70,0x69,0x74,0x63,0x68,0x69,0x69))
ShowMessageFace("saki_fc1",0,0,2,5)
ShowMessage("\\n<Saki>Look, look~♪　It's Cheerleader style~♪\nIt's cute, isn't it...?")
ShowMessageFace("",0,0,2,6)
ShowMessage("\\n<Luka>......")
ShowMessageFace("",0,0,2,7)
ShowMessage("Saki presses her butt out towards me, showing off her outfit.")
ShowMessage("For some reason, she had also stripped me naked.")
PictureDisplay(5,"ev_saki_hc02",0,0,0,0,100,100,255,0)
ShowMessageFace("saki_fc1",0,0,2,8)
ShowMessage("\\n<Saki>Ehehe, well?\nIs it irresistable...?")
ShowMessageFace("",0,0,2,9)
ShowMessage("Saki shakes her ass side to side, as if tempting me.")
ShowMessage("Sadly, my penis is all too happy to respond...")
ShowMessageFace("saki_fc1",0,0,2,10)
ShowMessage("\\n<Saki>Arere, are you in a lewd mood?\nJust for today, a special touch is OK☆")
ShowMessageFace("saki_fc1",0,0,2,11)
ShowMessage("\\n<Saki>But it's forbiddon to take off Saki's panties☆\nHorahora, rub Saki with your penis~♪")
ShowMessageFace("",0,0,2,12)
ShowMessage("\\n<Luka>N...No way...")
ShowMessageFace("",0,0,2,13)
ShowMessage("Showing off her ass, Saki smirks at me.")
ShowMessage("My already-erect penis is trembling as I watch...")
ShowChoices(strings("Slip into gap between panties and ass","Just look"),0)
IfPlayerPicksChoice(0,"Slip into gap between panties and ass")
 ShowMessageFace("saki_fc1",0,0,2,14)
 ShowMessage("\\n<Saki>Ahaha, what will you dooo...?")
 ShowMessageFace("",0,0,2,15)
 ShowMessage("\\n<Luka>Ah, Aaah...")
 PictureDisplay(5,"ev_saki_hd1",0,0,0,0,100,100,255,0)
 ShowMessageFace("",0,0,2,16)
 ShowMessage("As if possessed, I start to move...")
 ShowMessage("I press myself between her panties and ass!")
 ShowMessageFace("",0,0,2,17)
 ShowMessage("Feeling her panties on one side, and her raw skin on the other, it feels unique.")
 ShowMessage("The tight feeling of being pressed between them is unbearable.")
 ShowMessageFace("saki_fc1",0,0,2,18)
 ShowMessage("\\n<Saki>Oh no, you put it there!\nSaki's panties are being raped! ♪")
 ShowMessageFace("",0,0,2,19)
 ShowMessage("Saki shakes her ass side to side as she laughs.")
 ShowMessage("My glans rubs against her soft panties.")
 ShowMessageFace("",0,0,2,20)
 ShowMessage("\\n<Luka>Hauuu...")
 ShowMessageFace("",0,0,2,21)
 ShowMessage("The delicate touch is almost ticklish.")
 ShowMessage("At the same time, I can feel the warmth of her bare ass...")
 ShowMessageFace("saki_fc1",0,0,2,22)
 ShowMessage("\\n<Saki>Ahaha... You're enjoying it so much in Saki's panties, aren't you?\nHow shameful.♪")
 245(bytes(0x04,0x08,0x6f,0x3a,0x0d,0x52,0x50,0x47,0x3a,0x3a,0x42,0x47,0x53,0x08,0x3a,0x0a,0x40,0x6e,0x61,0x6d,0x65,0x49,0x22,0x17,0x6d,0x6f,0x6e,0x5f,0x68,0x73,0x65,0x61,0x6e,0x31,0x37,0x5f,0x73,0x69,0x67,0x6f,0x6b,0x69,0x06,0x3a,0x06,0x45,0x54,0x3a,0x0c,0x40,0x76,0x6f,0x6c,0x75,0x6d,0x65,0x69,0x69,0x3a,0x0b,0x40,0x70,0x69,0x74,0x63,0x68,0x69,0x69))
 ShowMessageFace("",0,0,2,23)
 ShowMessage("Saki slowly moves her ass side to side.")
 ShowMessageFace("",0,0,2,24)
 ShowMessage("\\n<Luka>Ah, Auuu...")
 ShowMessageFace("",0,0,2,25)
 ShowMessage("The unique feeling of insertion here makes me moan.")
 ShowMessage("All the while, Saki giggles and watches.")
 ShowMessageFace("saki_fc1",0,0,2,26)
 ShowMessage("\\n<Saki>Aha, what a lewd voice.\nIf you're like that, you'll come soon...?")
 ShowMessageFace("saki_fc1",0,0,2,27)
 ShowMessage("\\n<Saki>...Hey, are you really happy putting your penis there?\nWouldn't you rather stick it in Saki's pussy?")
 ShowMessageFace("saki_fc1",0,0,2,28)
 ShowMessage("\\n<Saki>If you can endure this, you can put it in...\nNot in her panties, in Saki herself☆")
 ShowMessageFace("",0,0,2,29)
 ShowMessage("\\n<Luka>Eh...!? B-But...")
 ShowMessageFace("saki_fc1",0,0,2,30)
 ShowMessage("\\n<Saki>You don't want to use Saki's Idol Pussy?\nSaki's super tight, and super warm you know?")
 ShowMessageFace("",0,0,2,31)
 ShowMessage("\\n<Luka>I-I want to...")
 ShowMessageFace("saki_fc1",0,0,2,32)
 ShowMessage("\\n<Saki>Then just be patient for a while.\nIf you come now, an Idol's Pussy is beyond your grasp.♪")
 ShowMessageFace("",0,0,2,33)
 ShowMessage("Saying that, Saki starts shaking her ass again.")
 ShowMessage("My glans rubs against the detailed frills of her cheerleader's panties.")
 ShowMessageFace("",0,0,2,34)
 ShowMessage("At the same time, the feel of her raw ass...")
 ShowMessage("Reacting to it all, my penis is throbbing in pleasure.")
 ShowMessageFace("saki_fc1",0,0,2,35)
 ShowMessage("\\n<Saki>Arere, your penis is pulsing?\nIf you come now, you can't use Saki's Idol Pussy you know?")
 ShowMessageFace("saki_fc1",0,0,2,36)
 ShowMessage("\\n<Saki>Is that alright? Are you sure? You don't want to?\nHora, Saki's rooting for you!♪　You can do it~♪")
 ShowMessageFace("",0,0,2,37)
 ShowMessage("She says she's rooting for me, but her ass movements get even more intense.")
 ShowMessage("Rubbed between her panties and ass, it's more than I can take.")
 ShowMessageFace("",0,0,2,38)
 ShowMessage("\\n<Luka>Unnngh...Nnngh...")
 ShowMessageFace("",0,0,2,39)
 ShowMessage("Her smooth skin rubs my glans back and forth.")
 ShowMessage("With the frilly panties rubbing me at the same time...")
 ShowMessageFace("",0,0,2,40)
 ShowMessage("I try to endure it, but I just can't do it.")
 ShowMessage("At this rate, I'm going to come on her panties.")
 ShowMessageFace("",0,0,2,41)
 ShowMessage("\\n<Luka>Aaah...I'm coming...")
 ShowMessageFace("saki_fc1",0,0,2,42)
 ShowMessage("\\n<Saki>Awww, already?\nToo bad, no using Saki's pussy then.♪")
 ShowMessageFace("saki_fc1",0,0,2,43)
 ShowMessage("\\n<Saki>Then go and come~♪\nCome inside Saki's panties～☆")
 ShowMessageFace("",0,0,2,44)
 ShowMessage("Saki waves her ass back and forth even faster.")
 ShowMessage("Rubbing against her panties, my head goes pure white.")
 ShowMessageFace("",0,0,2,45)
 ShowMessage("\\n<Luka>Ah, Aaaah...!!")
 RunCommonEvent(104)
 PictureDisplay(5,"ev_saki_hd2",0,0,0,0,100,100,255,0)
 RunCommonEvent(105)
 ShowMessageFace("",0,0,2,46)
 ShowMessage("Unable to endure it, I finally come.")
 ShowMessage("My penis pulses as I come inside her panties.")
 ShowMessageFace("",0,0,2,47)
 ShowMessage("\\n<Luka>Hau... Aah...")
 ShowMessageFace("",0,0,2,48)
 ShowMessage("I taste the sweet feeling of release as I unload.")
 ShowMessage("By the time I was done coming, Saki's white panties were totally covered in semen.")
 246(2)
 ShowMessageFace("saki_fc1",0,0,2,49)
 ShowMessage("\\n<Saki>Awww, you couldn't do it.\nNo doing lewd things with Saki, then.☆")
 ShowMessageFace("saki_fc1",0,0,2,50)
 ShowMessage("\\n<Saki>Saki's panties are good enough for you, after all.☆\nSaki's pussy would be wasted on you, wouldn't it?")
 ShowMessageFace("",0,0,2,51)
 ShowMessage("\\n<Luka>......")
 ShowMessageFace("",0,0,2,52)
 ShowMessage("Saki laughs as she shows off my semen on her panties.")
 ShowMessage("I can only stare at the cloudy stain in silence.")
 221()
 PictureClear(5)
 PictureClear(6)
 ShowMessageFace("",0,0,2,53)
 ShowMessage("......")
 242(2)
 Wait(120)
 241(bytes(0x04,0x08,0x6f,0x3a,0x0d,0x52,0x50,0x47,0x3a,0x3a,0x42,0x47,0x4d,0x08,0x3a,0x0a,0x40,0x6e,0x61,0x6d,0x65,0x49,0x22,0x0c,0x63,0x61,0x73,0x74,0x6c,0x65,0x36,0x06,0x3a,0x06,0x45,0x54,0x3a,0x0c,0x40,0x76,0x6f,0x6c,0x75,0x6d,0x65,0x69,0x69,0x3a,0x0b,0x40,0x70,0x69,0x74,0x63,0x68,0x69,0x69))
 0()
IfPlayerPicksChoice(1,"Just look")
 ShowMessageFace("",0,0,2,54)
 ShowMessage("\\n<Luka>B-But... That...\nI can't do that...")
 ShowMessageFace("saki_fc1",0,0,2,55)
 ShowMessage("\\n<Saki>Are you embarrassed to do it while Saki's watching...?\nThen Saki will lend a hand.☆")
 PictureDisplay(5,"ev_saki_hc03",0,0,0,0,100,100,255,0)
 ShowMessageFace("",0,0,2,56)
 ShowMessage("Tentacles grow from Saki's pom-pom and reach toward my body.")
 ShowMessage("Pressing against my back, they force me closer to her.")
 ShowMessageFace("",0,0,2,57)
 ShowMessage("\\n<Luka>Hauuu...")
 ShowMessageFace("",0,0,2,58)
 ShowMessage("The frills on her panties rub against my penis.")
 ShowMessage("At the same time, I can feel the sof warmth of her ass through them.")
 ShowMessageFace("saki_fc1",0,0,2,59)
 ShowMessage("\\n<Saki>Ahaha... Your penis is so haaard.☆\nBut Saki's ass is so soft.♪")
 245(bytes(0x04,0x08,0x6f,0x3a,0x0d,0x52,0x50,0x47,0x3a,0x3a,0x42,0x47,0x53,0x08,0x3a,0x0a,0x40,0x6e,0x61,0x6d,0x65,0x49,0x22,0x17,0x6d,0x6f,0x6e,0x5f,0x68,0x73,0x65,0x61,0x6e,0x31,0x37,0x5f,0x73,0x69,0x67,0x6f,0x6b,0x69,0x06,0x3a,0x06,0x45,0x54,0x3a,0x0c,0x40,0x76,0x6f,0x6c,0x75,0x6d,0x65,0x69,0x69,0x3a,0x0b,0x40,0x70,0x69,0x74,0x63,0x68,0x69,0x69))
 ShowMessageFace("",0,0,2,60)
 ShowMessage("Saki presses back, pushing her ass against me.")
 ShowMessage("I can feel her soft ass through her panties.")
 ShowMessageFace("",0,0,2,61)
 ShowMessage("\\n<Luka>Ah, Auuu...")
 ShowMessageFace("",0,0,2,62)
 ShowMessage("The soft feeling makes me moan in surprise.")
 ShowMessage("Giggling, Saki rubs her ass back and forth against me.")
 ShowMessageFace("saki_fc1",0,0,2,63)
 ShowMessage("\\n<Saki>Aha, what a lewd voice.\nIf you're like that, you'll come soon...?")
 ShowMessageFace("saki_fc1",0,0,2,64)
 ShowMessage("\\n<Saki>...Hey, are you really happy putting your penis there?\nWouldn't you rather stick it in Saki's pussy?")
 ShowMessageFace("",0,0,2,65)
 ShowMessage("\\n<Luka>Eh...!?　B-But...")
 ShowMessageFace("saki_fc1",0,0,2,66)
 ShowMessage("\\n<Saki>If you can endure this, you can put it in...\nNot in her panties, in Saki herself☆")
 ShowMessageFace("",0,0,2,67)
 ShowMessage("\\n<Luka>I-I want to...")
 ShowMessageFace("saki_fc1",0,0,2,32)
 ShowMessage("\\n<Saki>Then just be patient for a while.\nIf you come now, an Idol's Pussy is beyond your grasp.♪")
 ShowMessageFace("",0,0,2,69)
 ShowMessage("Saying that, she rubs her ass against me.")
 ShowMessage("As the frilly panties rub against my back muscle, I feel myself go weak.")
 ShowMessageFace("",0,0,2,70)
 ShowMessage("As her soft ass presses against me, I feel too good.")
 ShowMessage("Responding to it, my hard penis presses deep into her ass.")
 ShowMessageFace("saki_fc1",0,0,2,71)
 ShowMessage("\\n<Saki>Arere, your penis is pulsing?\nIf you come now, you can't use Saki's Idol Pussy you know?")
 ShowMessageFace("saki_fc1",0,0,2,36)
 ShowMessage("\\n<Saki>Is that alright? Are you sure? You don't want to?\nHora, Saki's rooting for you!♪　You can do it~♪")
 ShowMessageFace("",0,0,2,73)
 ShowMessage("Despite saying she's cheering for me, she starts rubbing her ass even harder.")
 ShowMessage("My penis is crushed tight against her.")
 ShowMessageFace("",0,0,2,74)
 ShowMessage("\\n<Luka>Unnngh...Nnngh...")
 ShowMessageFace("",0,0,2,75)
 ShowMessage("Her soft ass, the textured panties...")
 ShowMessage("It's all too much to take.")
 ShowMessageFace("",0,0,2,76)
 ShowMessage("I tried to endure it, but there's no use.")
 ShowMessage("At this rate, I'm going to come on her ass...")
 ShowMessageFace("",0,0,2,77)
 ShowMessage("\\n<Luka>Aaah...I'm coming...")
 ShowMessageFace("saki_fc1",0,0,2,42)
 ShowMessage("\\n<Saki>Awww, already?\nToo bad, no using Saki's pussy then.♪")
 ShowMessageFace("saki_fc1",0,0,2,79)
 ShowMessage("\\n<Saki>Then go ahead and come~♪\nLeak all over Saki's ass～☆")
 ShowMessageFace("",0,0,2,80)
 ShowMessage("Saki presses her ass against me, rubbing back and forth.")
 ShowMessage("Being crushed against her soft ass, I feel my head go pure white.")
 ShowMessageFace("",0,0,2,81)
 ShowMessage("\\n<Luka>Ah, Aaaah...!!")
 RunCommonEvent(104)
 PictureDisplay(5,"ev_saki_hc05",0,0,0,0,100,100,255,0)
 RunCommonEvent(105)
 ShowMessageFace("",0,0,2,82)
 ShowMessage("Unable to endure it, I finally come.")
 ShowMessage("Shooting out, my semen covers Saki's ass.")
 ShowMessageFace("",0,0,2,83)
 ShowMessage("\\n<Luka>Hau... Aah...")
 ShowMessageFace("",0,0,2,84)
 ShowMessage("I taste the sweet feeling of release as I come all over her panties.")
 ShowMessage("By the time I was done coming, Saki's white panties were totally covered in semen.")
 246(2)
 ShowMessageFace("saki_fc1",0,0,2,85)
 ShowMessage("\\n<Saki>Awww, you couldn't do it.\nNo doing lewd things with Saki, then.☆")
 ShowMessageFace("saki_fc1",0,0,2,50)
 ShowMessage("\\n<Saki>Saki's ass was enough for you, after all.☆\nYou can go again if you want☆")
 ShowMessageFace("",0,0,2,87)
 ShowMessage("\\n<Luka>......")
 ShowMessageFace("",0,0,2,88)
 ShowMessage("Saki laughs as she shows off her ass, covered in my semen.")
 ShowMessage("I can only stare at the cloudy stain in silence.")
 221()
 PictureClear(5)
 PictureClear(6)
 ShowMessageFace("",0,0,2,89)
 ShowMessage("......")
 242(2)
 Wait(120)
 241(bytes(0x04,0x08,0x6f,0x3a,0x0d,0x52,0x50,0x47,0x3a,0x3a,0x42,0x47,0x4d,0x08,0x3a,0x0a,0x40,0x6e,0x61,0x6d,0x65,0x49,0x22,0x0c,0x63,0x61,0x73,0x74,0x6c,0x65,0x36,0x06,0x3a,0x06,0x45,0x54,0x3a,0x0c,0x40,0x76,0x6f,0x6c,0x75,0x6d,0x65,0x69,0x69,0x3a,0x0b,0x40,0x70,0x69,0x74,0x63,0x68,0x69,0x69))
 0()
404()
0()
